[
  "1",
  "2",
  "3",
  "4",
  "5",
  "6",
  "7",
  "8",
  "9",
  "10",
  "11",
  "12",
  "13",
  "14",
  "15",
  "16",
  "17",
  "18",
  "19",
  "20",
  "21",
  "22",
  "23",
  "24",
  "25",
  "26",
  "27",
  "28",
  "29",
  "30",
  "31",
  "33",
  "34",
  "35",
  "36",
  "37",
  "38",
  "39",
  "40",
  "41",
  "42",
  "43",
  "44",
  "45",
  "46",
  "47",
  "48",
  "49",
  "53",
  "54",
  "55",
  "56",
  "57",
  "58",
  "59",
  "60",
  "61",
  "62",
  "63",
  "64",
  "65",
  "66",
  "67",
  "68",
  "69",
  "70",
  "71",
  "72",
  "73",
  "74",
  "75",
  "76",
  "77",
  "78",
  "79",
  "80",
  "81",
  "82",
  "84",
  "85",
  "86",
  "87",
  "88",
  "89",
  "91",
  "92",
  "93",
  "94",
  "95",
  "96",
  "97",
  "98",
  "99",
  "100",
  "101",
  "102",
  "103",
  "104",
  "106",
  "107",
  "108",
  "109",
  "110",
  "111",
  "112",
  "113",
  "114",
  "115",
  "116",
  "117",
  "118",
  "119",
  "120",
  "121",
  "122",
  "123",
  "124",
  "125",
  "126",
  "127",
  "128",
  "129",
  "130",
  "131",
  "132",
  "133",
  "134",
  "135",
  "136",
  "137",
  "139",
  "140",
  "141",
  "142",
  "143",
  "144",
  "145",
  "146",
  "147",
  "148",
  "149",
  "150",
  "151",
  "152",
  "153",
  "154",
  "155",
  "156",
  "157",
  "158",
  "160",
  "161",
  "162",
  "163",
  "164",
  "165",
  "166",
  "167",
  "168",
  "169",
  "170",
  "171",
  "172",
  "173",
  "174",
  "175",
  "176",
  "177",
  "178",
  "179",
  "180",
  "181",
  "182",
  "183",
  "184",
  "185",
  "186",
  "187",
  "188",
  "189",
  "190",
  "191",
  "192",
  "193",
  "194",
  "195",
  "196",
  "197",
  "198",
  "199",
  "200",
  "201",
  "202",
  "203",
  "204",
  "205",
  "206",
  "207",
  "208",
  "209",
  "210",
  "211",
  "212",
  "215",
  "216",
  "217",
  "218",
  "219",
  "220",
  "221",
  "222",
  "223",
  "224",
  "225",
  "226",
  "227",
  "228",
  "230",
  "231",
  "232",
  "234",
  "235",
  "236",
  "237",
  "238",
  "239",
  "240",
  "241",
  "242",
  "243",
  "244",
  "245",
  "246",
  "247",
  "248",
  "249",
  "250",
  "252",
  "253",
  "254",
  "255",
  "256",
  "257",
  "258",
  "259",
  "260",
  "261",
  "262",
  "263",
  "264",
  "265",
  "266",
  "267",
  "268",
  "269",
  "270",
  "271",
  "272",
  "273",
  "274",
  "275",
  "276",
  "277",
  "278",
  "279",
  "280",
  "281",
  "282",
  "283",
  "284",
  "285",
  "286",
  "287",
  "288",
  "289",
  "290",
  "291",
  "292",
  "293",
  "294",
  "295",
  "296",
  "297",
  "298",
  "299",
  "300",
  "302",
  "303",
  "304",
  "305",
  "306",
  "307",
  "308",
  "309",
  "310",
  "312",
  "313",
  "314",
  "315",
  "316",
  "317",
  "318",
  "319",
  "320",
  "321",
  "322",
  "323",
  "324",
  "325",
  "326",
  "327",
  "329",
  "330",
  "332",
  "333",
  "334",
  "335",
  "337",
  "338",
  "339",
  "340",
  "342",
  "343",
  "344",
  "345",
  "346",
  "347",
  "348",
  "349",
  "350",
  "351",
  "352",
  "353",
  "354",
  "355",
  "356",
  "357",
  "358",
  "359",
  "360",
  "361",
  "362",
  "363",
  "364",
  "366",
  "367",
  "368",
  "369",
  "370",
  "371",
  "372",
  "373",
  "374",
  "375",
  "376",
  "377",
  "378",
  "379",
  "380",
  "381",
  "382",
  "383",
  "384",
  "385",
  "386",
  "387",
  "388",
  "389",
  "390",
  "391",
  "392",
  "393",
  "394",
  "395",
  "396",
  "397",
  "398",
  "399",
  "400",
  "401",
  "402",
  "403",
  "404",
  "405",
  "406",
  "407",
  "408",
  "409",
  "410",
  "411",
  "412",
  "413",
  "414",
  "415",
  "416",
  "417",
  "418",
  "419",
  "420",
  "421",
  "422",
  "423",
  "424",
  "428",
  "429",
  "430",
  "431",
  "433",
  "434",
  "435",
  "436",
  "437",
  "438",
  "439",
  "440",
  "442",
  "443",
  "444",
  "445",
  "446",
  "447",
  "448",
  "449",
  "450",
  "451",
  "452",
  "453",
  "454",
  "455",
  "456",
  "457",
  "458",
  "459",
  "460",
  "461",
  "462",
  "463",
  "464",
  "465",
  "466",
  "467",
  "468",
  "469",
  "470",
  "471",
  "472",
  "473",
  "474",
  "476",
  "477",
  "478",
  "479",
  "480",
  "481",
  "482",
  "483",
  "484",
  "485",
  "486",
  "487",
  "488",
  "489",
  "490",
  "491",
  "492",
  "493",
  "494",
  "495",
  "496",
  "497",
  "498",
  "499",
  "500",
  "501",
  "502",
  "503",
  "504",
  "505",
  "506",
  "507",
  "508",
  "509",
  "510",
  "511",
  "512",
  "513",
  "514",
  "515",
  "516",
  "518",
  "519",
  "520",
  "522",
  "523",
  "524",
  "525",
  "526",
  "527",
  "528",
  "529",
  "530",
  "531",
  "532",
  "533",
  "534",
  "535",
  "536",
  "537",
  "538",
  "539",
  "540",
  "541",
  "542",
  "543",
  "544",
  "545",
  "546",
  "547",
  "548",
  "549",
  "550",
  "551",
  "552",
  "553",
  "554",
  "555",
  "557",
  "558",
  "559",
  "560",
  "561",
  "562",
  "563",
  "564",
  "565",
  "566",
  "567",
  "568",
  "569",
  "570",
  "571",
  "572",
  "573",
  "574",
  "575",
  "576",
  "577",
  "578",
  "579",
  "580",
  "581",
  "582",
  "583",
  "584",
  "585",
  "587",
  "588",
  "589",
  "590",
  "591",
  "592",
  "593",
  "594",
  "595",
  "596",
  "597",
  "598",
  "599",
  "600",
  "601",
  "602",
  "604",
  "605",
  "606",
  "607",
  "608",
  "609",
  "610",
  "611",
  "612",
  "613",
  "614",
  "615",
  "616",
  "617",
  "618",
  "619",
  "620",
  "621",
  "622",
  "623",
  "624",
  "625",
  "626",
  "627",
  "628",
  "629",
  "630",
  "631",
  "632",
  "633",
  "634",
  "635",
  "636",
  "637",
  "638",
  "639",
  "640",
  "641",
  "642",
  "643",
  "644",
  "645",
  "646",
  "647",
  "648",
  "649",
  "650",
  "651",
  "652",
  "653",
  "654",
  "655",
  "656",
  "657",
  "658",
  "659",
  "660",
  "661",
  "662",
  "664",
  "665",
  "666",
  "667",
  "668",
  "669",
  "670",
  "671",
  "672",
  "673",
  "674",
  "675",
  "676",
  "677",
  "678",
  "679",
  "680",
  "681",
  "682",
  "683",
  "684",
  "685",
  "686",
  "688",
  "689",
  "690",
  "691",
  "692",
  "693",
  "694",
  "695",
  "696",
  "697",
  "698",
  "699",
  "700",
  "701",
  "702",
  "703",
  "704",
  "705",
  "706",
  "707",
  "716",
  "717",
  "718",
  "719",
  "720",
  "721",
  "722",
  "723",
  "724",
  "725",
  "726",
  "728",
  "729",
  "730",
  "731",
  "732",
  "733",
  "734",
  "735",
  "736",
  "737",
  "738",
  "739",
  "740",
  "741",
  "742",
  "743",
  "744",
  "745",
  "746",
  "747",
  "748",
  "749",
  "750",
  "751",
  "752",
  "753",
  "754",
  "755",
  "756",
  "757",
  "758",
  "759",
  "760",
  "761",
  "762",
  "763",
  "764",
  "765",
  "766",
  "767",
  "768",
  "769",
  "770",
  "771",
  "772",
  "773",
  "774",
  "775",
  "776",
  "777",
  "778",
  "779",
  "780",
  "781",
  "782",
  "783",
  "784",
  "785",
  "786",
  "787",
  "788",
  "789",
  "790",
  "791",
  "792",
  "793",
  "794",
  "795",
  "796",
  "797",
  "798",
  "799",
  "800",
  "801",
  "802",
  "803",
  "804",
  "805",
  "806",
  "807",
  "809",
  "810",
  "811",
  "812",
  "813",
  "814",
  "815",
  "816",
  "817",
  "818",
  "819",
  "820",
  "821",
  "822",
  "823",
  "824",
  "825",
  "826",
  "827",
  "828",
  "829",
  "831",
  "832",
  "833",
  "834",
  "835",
  "836",
  "837",
  "838",
  "839",
  "840",
  "841",
  "842",
  "843",
  "844",
  "845",
  "846",
  "847",
  "848",
  "849",
  "851",
  "852",
  "853",
  "854",
  "855",
  "856",
  "857",
  "859",
  "860",
  "862",
  "863",
  "864",
  "865",
  "866",
  "867",
  "868",
  "869",
  "870",
  "871",
  "872",
  "873",
  "874",
  "875",
  "876",
  "877",
  "878",
  "879",
  "880",
  "881",
  "882",
  "883",
  "884",
  "885",
  "886",
  "887",
  "888",
  "889",
  "890",
  "891",
  "892",
  "893",
  "894",
  "895",
  "896",
  "897",
  "898",
  "899",
  "900",
  "901",
  "902",
  "903",
  "904",
  "905",
  "906",
  "907",
  "908",
  "909",
  "911",
  "912",
  "913",
  "914",
  "915",
  "916",
  "917",
  "918",
  "919",
  "921",
  "922",
  "923",
  "924",
  "925",
  "926",
  "927",
  "928",
  "929",
  "930",
  "931",
  "932",
  "933",
  "934",
  "935",
  "936",
  "937",
  "938",
  "939",
  "940",
  "941",
  "942",
  "943",
  "944",
  "945",
  "946",
  "947",
  "948",
  "949",
  "950",
  "951",
  "952",
  "953",
  "954",
  "955",
  "956",
  "958",
  "959",
  "960",
  "961",
  "962",
  "963",
  "964",
  "965",
  "966",
  "967",
  "968",
  "969",
  "970",
  "971",
  "972",
  "973",
  "974",
  "975",
  "976",
  "977",
  "978",
  "979",
  "980",
  "981",
  "982",
  "983",
  "984",
  "985",
  "986",
  "987",
  "988",
  "989",
  "990",
  "991",
  "992",
  "993",
  "994",
  "995",
  "996",
  "997",
  "998",
  "999",
  "1000",
  "1001",
  "1002",
  "1003",
  "1004",
  "1005",
  "1006",
  "1007",
  "1008",
  "1009",
  "1010",
  "1011",
  "1012",
  "1013",
  "1014",
  "1015",
  "1016",
  "1017",
  "1018",
  "1019",
  "1020",
  "1021",
  "1022",
  "1023",
  "1024",
  "1025",
  "1026",
  "1027",
  "1028",
  "1029",
  "1031",
  "1032",
  "1033",
  "1034",
  "1035",
  "1036",
  "1037",
  "1038",
  "1039",
  "1040",
  "1041",
  "1042",
  "1043",
  "1044",
  "1045",
  "1046",
  "1047",
  "1048",
  "1049",
  "1050",
  "1051",
  "1052",
  "1053",
  "1054",
  "1055",
  "1056",
  "1057",
  "1058",
  "1059",
  "1060",
  "1061",
  "1062",
  "1063",
  "1064",
  "1065",
  "1066",
  "1067",
  "1068",
  "1069",
  "1070",
  "1071",
  "1072",
  "1073",
  "1074",
  "1075",
  "1076",
  "1077",
  "1078",
  "1079",
  "1080",
  "1081",
  "1082",
  "1083",
  "1084",
  "1085",
  "1086",
  "1087",
  "1088",
  "1089",
  "1090",
  "1091",
  "1092",
  "1094",
  "1095",
  "1096",
  "1097",
  "1098",
  "1099",
  "1100",
  "1101",
  "1102",
  "1103",
  "1104",
  "1105",
  "1106",
  "1107",
  "1108",
  "1109",
  "1110",
  "1111",
  "1112",
  "1113",
  "1114",
  "1115",
  "1116",
  "1117",
  "1118",
  "1119",
  "1121",
  "1122",
  "1123",
  "1124",
  "1126",
  "1127",
  "1128",
  "1129",
  "1130",
  "1131",
  "1132",
  "1133",
  "1134",
  "1135",
  "1136",
  "1137",
  "1138",
  "1139",
  "1140",
  "1141",
  "1142",
  "1144",
  "1145",
  "1146",
  "1148",
  "1149",
  "1150",
  "1151",
  "1152",
  "1153",
  "1154",
  "1155",
  "1156",
  "1157",
  "1158",
  "1159",
  "1161",
  "1162",
  "1163",
  "1164",
  "1165",
  "1166",
  "1168",
  "1169",
  "1170",
  "1174",
  "1175",
  "1176",
  "1177",
  "1178",
  "1179",
  "1180",
  "1181",
  "1182",
  "1183",
  "1184",
  "1185",
  "1186",
  "1187",
  "1188",
  "1190",
  "1191",
  "1192",
  "1193",
  "1194",
  "1195",
  "1196",
  "1197",
  "1198",
  "1199",
  "1200",
  "1201",
  "1202",
  "1203",
  "1204",
  "1205",
  "1206",
  "1207",
  "1208",
  "1209",
  "1210",
  "1211",
  "1212",
  "1213",
  "1214",
  "1215",
  "1216",
  "1217",
  "1219",
  "1220",
  "1221",
  "1222",
  "1223",
  "1224",
  "1225",
  "1226",
  "1227",
  "1228",
  "1229",
  "1230",
  "1231",
  "1232",
  "1233",
  "1234",
  "1235",
  "1236",
  "1237",
  "1238",
  "1239",
  "1240",
  "1241",
  "1242",
  "1243",
  "1244",
  "1245",
  "1247",
  "1248",
  "1249",
  "1250",
  "1251",
  "1252",
  "1253",
  "1254",
  "1255",
  "1256",
  "1257",
  "1258",
  "1259",
  "1260",
  "1261",
  "1262",
  "1264",
  "1265",
  "1266",
  "1267",
  "1268",
  "1269",
  "1270",
  "1271",
  "1272",
  "1273",
  "1274",
  "1275",
  "1276",
  "1277",
  "1278",
  "1279",
  "1280",
  "1281",
  "1282",
  "1285",
  "1286",
  "1287",
  "1288",
  "1289",
  "1290",
  "1291",
  "1292",
  "1293",
  "1294",
  "1295",
  "1296",
  "1297",
  "1298",
  "1299",
  "1300",
  "1302",
  "1303",
  "1304",
  "1305",
  "1306",
  "1307",
  "1308",
  "1309",
  "1310",
  "1311",
  "1312",
  "1313",
  "1314",
  "1315",
  "1316",
  "1317",
  "1318",
  "1319",
  "1320",
  "1321",
  "1322",
  "1323",
  "1324",
  "1325",
  "1326",
  "1328",
  "1329",
  "1330",
  "1331",
  "1332",
  "1333",
  "1334",
  "1335",
  "1336",
  "1337",
  "1338",
  "1339",
  "1340",
  "1341",
  "1344",
  "1345",
  "1346",
  "1347",
  "1348",
  "1349",
  "1350",
  "1351",
  "1352",
  "1353",
  "1354",
  "1355",
  "1356",
  "1357",
  "1358",
  "1359",
  "1360",
  "1361",
  "1362",
  "1363",
  "1364",
  "1365",
  "1366",
  "1367",
  "1368",
  "1369",
  "1370",
  "1371",
  "1372",
  "1373",
  "1374",
  "1375",
  "1376",
  "1377",
  "1378",
  "1379",
  "1380",
  "1381",
  "1382",
  "1383",
  "1384",
  "1385",
  "1386",
  "1387",
  "1388",
  "1389",
  "1390",
  "1391",
  "1392",
  "1393",
  "1394",
  "1395",
  "1396",
  "1398",
  "1399",
  "1400",
  "1401",
  "1402",
  "1403",
  "1404",
  "1405",
  "1406",
  "1407",
  "1408",
  "1409",
  "1410",
  "1411",
  "1412",
  "1413",
  "1414",
  "1415",
  "1416",
  "1417",
  "1418",
  "1419",
  "1420",
  "1421",
  "1422",
  "1423",
  "1424",
  "1425",
  "1426",
  "1427",
  "1428",
  "1429",
  "1430",
  "1432",
  "1434",
  "1435",
  "1436",
  "1437",
  "1438",
  "1439",
  "1440",
  "1441",
  "1442",
  "1443",
  "1444",
  "1445",
  "1446",
  "1447",
  "1448",
  "1449",
  "1450",
  "1451",
  "1452",
  "1453",
  "1454",
  "1455",
  "1457",
  "1458",
  "1459",
  "1460",
  "1461",
  "1462",
  "1463",
  "1464",
  "1465",
  "1466",
  "1467",
  "1468",
  "1469",
  "1470",
  "1471",
  "1472",
  "1473",
  "1474",
  "1475",
  "1478",
  "1479",
  "1480",
  "1481",
  "1482",
  "1483",
  "1484",
  "1485",
  "1486",
  "1487",
  "1488",
  "1489",
  "1490",
  "1491",
  "1492",
  "1493",
  "1494",
  "1495",
  "1496",
  "1497",
  "1498",
  "1499",
  "1500",
  "1501",
  "1502",
  "1503",
  "1504",
  "1505",
  "1506",
  "1507",
  "1508",
  "1509",
  "1510",
  "1511",
  "1513",
  "1514",
  "1515",
  "1516",
  "1517",
  "1518",
  "1519",
  "1520",
  "1521",
  "1522",
  "1523",
  "1524",
  "1525",
  "1526",
  "1527",
  "1528",
  "1529",
  "1530",
  "1531",
  "1532",
  "1533",
  "1534",
  "1535",
  "1536",
  "1537",
  "1538",
  "1539",
  "1540",
  "1541",
  "1542",
  "1543",
  "1544",
  "1546",
  "1547",
  "1548",
  "1549",
  "1550",
  "1551",
  "1552",
  "1553",
  "1554",
  "1555",
  "1556",
  "1557",
  "1558",
  "1559",
  "1560",
  "1561",
  "1562",
  "1564",
  "1565",
  "1566",
  "1568",
  "1569",
  "1570",
  "1571",
  "1572",
  "1573",
  "1574",
  "1575",
  "1576",
  "1577",
  "1578",
  "1579",
  "1580",
  "1581",
  "1583",
  "1585",
  "1586",
  "1587",
  "1588",
  "1589",
  "1591",
  "1592",
  "1593",
  "1594",
  "1595",
  "1596",
  "1597",
  "1598",
  "1599",
  "1600",
  "1601",
  "1602",
  "1603",
  "1604",
  "1605",
  "1606",
  "1607",
  "1608",
  "1609",
  "1610",
  "1611",
  "1612",
  "1613",
  "1614",
  "1615",
  "1616",
  "1618",
  "1619",
  "1620",
  "1621",
  "1622",
  "1623",
  "1625",
  "1626",
  "1627",
  "1628",
  "1629",
  "1630",
  "1631",
  "1632",
  "1633",
  "1634",
  "1635",
  "1636",
  "1637",
  "1638",
  "1639",
  "1640",
  "1641",
  "1642",
  "1644",
  "1645",
  "1646",
  "1647",
  "1648",
  "1649",
  "1650",
  "1651",
  "1652",
  "1653",
  "1655",
  "1656",
  "1657",
  "1659",
  "1660",
  "1661",
  "1662",
  "1663",
  "1664",
  "1665",
  "1666",
  "1667",
  "1668",
  "1669",
  "1671",
  "1672",
  "1673",
  "1674",
  "1675",
  "1676",
  "1677",
  "1678",
  "1679",
  "1680",
  "1681",
  "1682",
  "1683",
  "1684",
  "1685",
  "1686",
  "1687",
  "1688",
  "1689",
  "1692",
  "1694",
  "1695",
  "1696",
  "1698",
  "1699",
  "1700",
  "1701",
  "1703",
  "1704",
  "1705",
  "1706",
  "1707",
  "1708",
  "1709",
  "1710",
  "1711",
  "1712",
  "1713",
  "1714",
  "1715",
  "1716",
  "1717",
  "1718",
  "1719",
  "1720",
  "1722",
  "1724",
  "1726",
  "1727",
  "1728",
  "1729",
  "1731",
  "1732",
  "1733",
  "1734",
  "1736",
  "1737",
  "1738",
  "1739",
  "1740",
  "1741",
  "1742",
  "1743",
  "1744",
  "1745",
  "1746",
  "1747",
  "1748",
  "1749",
  "1750",
  "1752",
  "1753",
  "1754",
  "1755",
  "1756",
  "1757",
  "1758",
  "1759",
  "1760",
  "1761",
  "1762",
  "1763",
  "1765",
  "1766",
  "1767",
  "1768",
  "1769",
  "1770",
  "1771",
  "1772",
  "1773",
  "1774",
  "1775",
  "1776",
  "1777",
  "1778",
  "1779",
  "1780",
  "1781",
  "1782",
  "1783",
  "1784",
  "1785",
  "1786",
  "1787",
  "1790",
  "1791",
  "1792",
  "1793",
  "1794",
  "1795",
  "1796",
  "1797",
  "1798",
  "1799",
  "1800",
  "1801",
  "1802",
  "1803",
  "1804",
  "1805",
  "1806",
  "1807",
  "1808",
  "1809",
  "1810",
  "1811",
  "1812",
  "1813",
  "1814",
  "1815",
  "1816",
  "1817",
  "1818",
  "1819",
  "1820",
  "1821",
  "1822",
  "1823",
  "1824",
  "1825",
  "1826",
  "1827",
  "1828",
  "1829",
  "1830",
  "1831",
  "1832",
  "1833",
  "1834",
  "1835",
  "1836",
  "1837",
  "1838",
  "1839",
  "1840",
  "1841",
  "1842",
  "1843",
  "1844",
  "1845",
  "1846",
  "1847",
  "1848",
  "1849",
  "1850",
  "1851",
  "1852",
  "1853",
  "1854",
  "1855",
  "1856",
  "1857",
  "1858",
  "1859",
  "1860",
  "1862",
  "1867",
  "1868",
  "1869",
  "1870",
  "1871",
  "1872",
  "1874",
  "1875",
  "1877",
  "1878",
  "1880",
  "1881",
  "1882",
  "1883",
  "1884",
  "1885",
  "1886",
  "1887",
  "1889",
  "1892",
  "1893",
  "1894",
  "1895",
  "1897",
  "1898",
  "1899",
  "1900",
  "1901",
  "1902",
  "1903",
  "1904",
  "1905",
  "1906",
  "1908",
  "1909",
  "1910",
  "1911",
  "1912",
  "1913",
  "1916",
  "1917",
  "1918",
  "1919",
  "1920",
  "1921",
  "1922",
  "1923",
  "1924",
  "1925",
  "1926",
  "1927",
  "1928",
  "1929",
  "1930",
  "1931",
  "1932",
  "1933",
  "1934",
  "1935",
  "1936",
  "1937",
  "1938",
  "1940",
  "1943",
  "1944",
  "1946",
  "1947",
  "1948",
  "1951",
  "1952",
  "1953",
  "1954",
  "1955",
  "1956",
  "1957",
  "1958",
  "1959",
  "1960",
  "1961",
  "1962",
  "1964",
  "1965",
  "1967",
  "1968",
  "1969",
  "1970",
  "1971",
  "1972",
  "1973",
  "1974",
  "1975",
  "1976",
  "1977",
  "1978",
  "1979",
  "1980",
  "1981",
  "1982",
  "1983",
  "1985",
  "1986",
  "1987",
  "1988",
  "1989",
  "1990",
  "1991",
  "1992",
  "1993",
  "1994",
  "1996",
  "1997",
  "1998",
  "1999",
  "2000",
  "2001",
  "2002",
  "2003",
  "2004",
  "2005",
  "2006",
  "2007",
  "2008",
  "2010",
  "2011",
  "2012",
  "2013",
  "2015",
  "2016",
  "2019",
  "2020",
  "2022",
  "2025",
  "2026",
  "2028",
  "2029",
  "2030",
  "2031",
  "2034",
  "2035",
  "2036",
  "2038",
  "2039",
  "2041",
  "2042",
  "2043",
  "2044",
  "2045",
  "2046",
  "2047",
  "2048",
  "2049",
  "2051",
  "2052",
  "2053",
  "2054",
  "2056",
  "2057",
  "2058",
  "2059",
  "2060",
  "2061",
  "2062",
  "2063",
  "2064",
  "2065",
  "2066",
  "2067",
  "2069",
  "2071",
  "2072",
  "2073",
  "2074",
  "2075",
  "2077",
  "2078",
  "2079",
  "2080",
  "2081",
  "2082",
  "2083",
  "2084",
  "2085",
  "2086",
  "2087",
  "2088",
  "2089",
  "2090",
  "2091",
  "2092",
  "2093",
  "2094",
  "2095",
  "2096",
  "2102",
  "2103",
  "2104",
  "2105",
  "2106",
  "2108",
  "2109",
  "2110",
  "2111",
  "2112",
  "2113",
  "2114",
  "2116",
  "2117",
  "2118",
  "2119",
  "2121",
  "2122",
  "2123",
  "2124",
  "2125",
  "2127",
  "2128",
  "2129",
  "2130",
  "2131",
  "2132",
  "2133",
  "2134",
  "2135",
  "2137",
  "2138",
  "2139",
  "2140",
  "2141",
  "2142",
  "2143",
  "2144",
  "2145",
  "2146",
  "2148",
  "2149",
  "2150",
  "2151",
  "2152",
  "2153",
  "2154",
  "2155",
  "2156",
  "2159",
  "2160",
  "2161",
  "2162",
  "2163",
  "2164",
  "2165",
  "2166",
  "2167",
  "2168",
  "2169",
  "2170",
  "2171",
  "2172",
  "2174",
  "2175",
  "2176",
  "2177",
  "2178",
  "2180",
  "2181",
  "2183",
  "2185",
  "2187",
  "2188",
  "2190",
  "2191",
  "2192",
  "2194",
  "2195",
  "2196",
  "2197",
  "2198",
  "2200",
  "2201",
  "2202",
  "2203",
  "2206",
  "2207",
  "2208",
  "2209",
  "2210",
  "2211",
  "2213",
  "2214",
  "2215",
  "2216",
  "2217",
  "2218",
  "2219",
  "2220",
  "2221",
  "2222",
  "2223",
  "2224",
  "2225",
  "2228",
  "2229",
  "2230",
  "2231",
  "2232",
  "2233",
  "2234",
  "2235",
  "2236",
  "2237",
  "2238",
  "2239",
  "2240",
  "2241",
  "2242",
  "2243",
  "2244",
  "2245",
  "2246",
  "2247",
  "2248",
  "2249",
  "2250",
  "2253",
  "2254",
  "2255",
  "2256",
  "2257",
  "2259",
  "2260",
  "2261",
  "2262",
  "2263",
  "2264",
  "2265",
  "2266",
  "2267",
  "2268",
  "2269",
  "2270",
  "2271",
  "2272",
  "2273",
  "2277",
  "2280",
  "2281",
  "2282",
  "2283",
  "2284",
  "2285",
  "2286",
  "2287",
  "2288",
  "2289",
  "2293",
  "2294",
  "2295",
  "2296",
  "2297",
  "2298",
  "2299",
  "2300",
  "2301",
  "2303",
  "2304",
  "2305",
  "2306",
  "2307",
  "2308",
  "2309",
  "2310",
  "2311",
  "2312",
  "2313",
  "2314",
  "2315",
  "2316",
  "2317",
  "2318",
  "2319",
  "2320",
  "2322",
  "2323",
  "2324",
  "2325",
  "2328",
  "2329",
  "2330",
  "2331",
  "2333",
  "2334",
  "2339",
  "2342",
  "2343",
  "2345",
  "2346",
  "2348",
  "2349",
  "2350",
  "2351",
  "2352",
  "2353",
  "2354",
  "2356",
  "2357",
  "2358",
  "2359",
  "2360",
  "2362",
  "2363",
  "2364",
  "2365",
  "2366",
  "2367",
  "2369",
  "2370",
  "2371",
  "2372",
  "2373",
  "2374",
  "2377",
  "2378",
  "2379",
  "2380",
  "2381",
  "2382",
  "2383",
  "2384",
  "2385",
  "2387",
  "2388",
  "2389",
  "2391",
  "2392",
  "2393",
  "2394",
  "2395",
  "2396",
  "2397",
  "2398",
  "2399",
  "2400",
  "2401",
  "2404",
  "2405",
  "2406",
  "2407",
  "2408",
  "2411",
  "2412",
  "2413",
  "2414",
  "2418",
  "2420",
  "2421",
  "2422",
  "2424",
  "2426",
  "2427",
  "2428",
  "2430",
  "2432",
  "2433",
  "2434",
  "2435",
  "2436",
  "2439",
  "2440",
  "2443",
  "2444",
  "2445",
  "2447",
  "2448",
  "2450",
  "2451",
  "2452",
  "2453",
  "2454",
  "2456",
  "2457",
  "2458",
  "2459",
  "2460",
  "2461",
  "2462",
  "2463",
  "2464",
  "2465",
  "2468",
  "2471",
  "2472",
  "2473",
  "2474",
  "2476",
  "2477",
  "2478",
  "2480",
  "2481",
  "2482",
  "2483",
  "2485",
  "2486",
  "2487",
  "2489",
  "2490",
  "2491",
  "2493",
  "2494",
  "2495",
  "2497",
  "2498",
  "2499",
  "2501",
  "2502",
  "2503",
  "2504",
  "2505",
  "2507",
  "2508",
  "2509",
  "2510",
  "2511",
  "2512",
  "2513",
  "2515",
  "2516",
  "2517",
  "2518",
  "2519",
  "2520",
  "2521",
  "2522",
  "2523",
  "2524",
  "2525",
  "2527",
  "2528",
  "2530",
  "2532",
  "2533",
  "2534",
  "2535",
  "2537",
  "2538",
  "2539",
  "2541",
  "2543",
  "2544",
  "2545",
  "2546",
  "2547",
  "2549",
  "2550",
  "2551",
  "2552",
  "2553",
  "2554",
  "2556",
  "2557",
  "2558",
  "2559",
  "2560",
  "2561",
  "2562",
  "2563",
  "2566",
  "2568",
  "2569",
  "2574",
  "2575",
  "2577",
  "2579",
  "2581",
  "2582",
  "2583",
  "2585",
  "2586",
  "2587",
  "2588",
  "2589",
  "2591",
  "2592",
  "2593",
  "2595",
  "2597",
  "2598",
  "2599",
  "2600",
  "2601",
  "2603",
  "2604",
  "2607",
  "2608",
  "2609",
  "2611",
  "2613",
  "2614",
  "2617",
  "2618",
  "2621",
  "2623",
  "2626",
  "2629",
  "2630",
  "2631",
  "2633",
  "2634",
  "2635",
  "2636",
  "2639",
  "2640",
  "2641",
  "2642",
  "2643",
  "2644",
  "2645",
  "2647",
  "2648",
  "2649",
  "2650",
  "2651",
  "2652",
  "2654",
  "2655",
  "2656",
  "2658",
  "2659",
  "2660",
  "2661",
  "2662",
  "2663",
  "2665",
  "2667",
  "2668",
  "2669",
  "2670",
  "2671",
  "2676",
  "2677",
  "2679",
  "2680",
  "2681",
  "2682",
  "2683",
  "2684",
  "2685",
  "2687",
  "2688",
  "2689",
  "2690",
  "2691",
  "2693",
  "2694",
  "2695",
  "2696",
  "2697",
  "2698",
  "2699",
  "2700",
  "2701",
  "2702",
  "2703",
  "2704",
  "2705",
  "2706",
  "2707",
  "2708",
  "2710",
  "2717",
  "2718",
  "2719",
  "2722",
  "2723",
  "2724",
  "2725",
  "2726",
  "2727",
  "2728",
  "2730",
  "2731",
  "2732",
  "2734",
  "2735",
  "2737",
  "2738",
  "2739",
  "2740",
  "2741",
  "2742",
  "2743",
  "2744",
  "2746",
  "2747",
  "2748",
  "2749",
  "2750",
  "2751",
  "2753",
  "2755",
  "2756",
  "2757",
  "2758",
  "2759",
  "2760",
  "2761",
  "2764",
  "2767",
  "2769",
  "2770",
  "2771",
  "2772",
  "2774",
  "2775",
  "2776",
  "2777",
  "2779",
  "2784",
  "2787",
  "2788",
  "2790",
  "2791",
  "2792",
  "2793",
  "2794",
  "2795",
  "2797",
  "2798",
  "2799",
  "2800",
  "2801",
  "2802",
  "2803",
  "2804",
  "2806",
  "2807",
  "2808",
  "2810",
  "2811",
  "2812",
  "2813",
  "2814",
  "2815",
  "2816",
  "2817",
  "2818",
  "2819",
  "2820",
  "2821",
  "2823",
  "2825",
  "2826",
  "2829",
  "2831",
  "2832",
  "2833",
  "2835",
  "2836",
  "2838",
  "2839",
  "2840",
  "2841",
  "2842",
  "2844",
  "2845",
  "2848",
  "2849",
  "2851",
  "2853",
  "2854",
  "2855",
  "2856",
  "2859",
  "2861",
  "2862",
  "2864",
  "2865",
  "2866",
  "2867",
  "2870",
  "2871",
  "2872",
  "2873",
  "2874",
  "2875",
  "2876",
  "2879",
  "2884",
  "2886",
  "2887",
  "2889",
  "2890",
  "2891",
  "2892",
  "2895",
  "2896",
  "2897",
  "2898",
  "2899",
  "2901",
  "2902",
  "2906",
  "2907",
  "2908",
  "2909",
  "2912",
  "2913",
  "2914",
  "2916",
  "2918",
  "2919",
  "2921",
  "2923",
  "2926",
  "2927",
  "2928",
  "2930",
  "2935",
  "2936",
  "2937",
  "2938",
  "2939",
  "2941",
  "2943",
  "2947",
  "2949",
  "2950",
  "2951",
  "2952",
  "2953",
  "2955",
  "2956",
  "2957",
  "2961",
  "2963",
  "2965",
  "2966",
  "2967",
  "2969",
  "2970",
  "2971",
  "2974",
  "2976",
  "2977",
  "2978",
  "2979",
  "2980",
  "2982",
  "2983",
  "2984",
  "2985",
  "2986",
  "2987",
  "2988",
  "2993",
  "2994",
  "2996",
  "2997",
  "3001",
  "3002",
  "3003",
  "3004",
  "3006",
  "3007",
  "3008",
  "3014",
  "3015",
  "3016",
  "3017",
  "3019",
  "3020",
  "3021",
  "3024",
  "3027",
  "3028",
  "3029",
  "3030",
  "3031",
  "3032",
  "3033",
  "3035",
  "3036",
  "3038",
  "3039",
  "3040",
  "3041",
  "3043",
  "3044",
  "3045",
  "3048",
  "3049",
  "3050",
  "3053",
  "3054",
  "3055",
  "3058",
  "3059",
  "3060",
  "3061",
  "3062",
  "3063",
  "3064",
  "3065",
  "3066",
  "3069",
  "3070",
  "3073",
  "3074",
  "3078",
  "3079",
  "3080",
  "3082",
  "3083",
  "3084",
  "3085",
  "3086",
  "3087",
  "3088",
  "3089",
  "3090",
  "3093",
  "3094",
  "3095",
  "3096",
  "3097",
  "3099",
  "3100",
  "3103",
  "3105",
  "3106",
  "3107",
  "3111",
  "3112",
  "3116",
  "3117",
  "3119",
  "3120",
  "3121",
  "3122",
  "3126",
  "3128",
  "3129",
  "3131",
  "3135",
  "3136",
  "3137",
  "3138",
  "3139",
  "3141",
  "3142",
  "3144",
  "3145",
  "3149",
  "3151",
  "3152",
  "3153",
  "3155",
  "3157",
  "3158",
  "3159",
  "3163",
  "3164",
  "3165",
  "3170",
  "3172",
  "3174",
  "3175",
  "3176",
  "3177",
  "3178",
  "3179",
  "3180",
  "3181",
  "3182",
  "3183",
  "3184",
  "3186",
  "3187",
  "3188",
  "3191",
  "3192",
  "3193",
  "3194",
  "3195",
  "3196",
  "3198",
  "3202",
  "3203",
  "3204",
  "3205",
  "3206",
  "3208",
  "3209",
  "3210",
  "3212",
  "3213",
  "3215",
  "3217",
  "3218",
  "3222",
  "3223",
  "3224",
  "3225",
  "3226",
  "3230",
  "3233",
  "3234",
  "3235",
  "3238",
  "3240",
  "3244",
  "3245",
  "3246",
  "3247",
  "3248",
  "3249",
  "3251",
  "3253",
  "3254",
  "3256",
  "3257",
  "3259",
  "3260",
  "3261",
  "3263",
  "3265",
  "3266",
  "3267",
  "3268",
  "3269",
  "3270",
  "3271",
  "3272",
  "3274",
  "3275",
  "3276",
  "3277",
  "3278",
  "3279",
  "3280",
  "3283",
  "3286",
  "3287",
  "3288",
  "3289",
  "3291",
  "3295",
  "3296",
  "3297",
  "3299",
  "3303",
  "3305",
  "3306",
  "3309",
  "3314",
  "3316",
  "3323",
  "3328",
  "3332",
  "3333",
  "3336",
  "3337",
  "3338",
  "3340",
  "3341",
  "3343",
  "3346",
  "3349",
  "3350",
  "3353",
  "3354",
  "3355",
  "3357",
  "3360",
  "3363",
  "3364",
  "3365",
  "3366",
  "3368",
  "3369",
  "3371",
  "3373",
  "3374",
  "3376",
  "3377",
  "3378",
  "3380",
  "3383",
  "3385",
  "3386",
  "3388",
  "3389",
  "3390",
  "3391",
  "3392",
  "3394",
  "3398",
  "3401",
  "3402",
  "3403",
  "3405",
  "3406",
  "3409",
  "3411",
  "3415",
  "3418",
  "3419",
  "3420",
  "3421",
  "3422",
  "3426",
  "3433",
  "3435",
  "3436",
  "3437",
  "3438",
  "3441",
  "3442",
  "3444",
  "3446",
  "3448",
  "3449",
  "3450",
  "3451",
  "3452",
  "3459",
  "3460",
  "3461",
  "3463",
  "3466",
  "3467",
  "3468",
  "3469",
  "3471",
  "3472",
  "3473",
  "3475",
  "3477",
  "3478",
  "3479",
  "3480",
  "3483",
  "3493",
  "3495",
  "3499",
  "3500",
  "3501",
  "3502",
  "3508",
  "3511",
  "3512",
  "3514",
  "3516",
  "3522",
  "3525",
  "3527",
  "3528",
  "3530",
  "3531",
  "3532",
  "3536",
  "3539",
  "3545",
  "3547",
  "3548",
  "3550",
  "3551",
  "3552",
  "3553",
  "3555",
  "3561",
  "3562",
  "3563",
  "3565",
  "3566",
  "3568",
  "3569",
  "3570",
  "3573",
  "3577",
  "3579",
  "3581",
  "3583",
  "3588",
  "3591",
  "3592",
  "3600",
  "3603",
  "3605",
  "3607",
  "3608",
  "3609",
  "3611",
  "3615",
  "3621",
  "3622",
  "3624",
  "3626",
  "3628",
  "3629",
  "3632",
  "3634",
  "3636",
  "3637",
  "3639",
  "3641",
  "3644",
  "3645",
  "3647",
  "3649",
  "3652",
  "3654",
  "3655",
  "3656",
  "3658",
  "3660",
  "3663",
  "3665",
  "3666",
  "3667",
  "3670",
  "3671",
  "3672",
  "3675",
  "3677",
  "3679",
  "3680",
  "3681",
  "3682",
  "3683",
  "3685",
  "3686",
  "3687",
  "3688",
  "3689",
  "3691",
  "3694",
  "3696",
  "3697",
  "3698",
  "3699",
  "3703",
  "3704",
  "3705",
  "3708",
  "3710",
  "3711",
  "3712",
  "3713",
  "3714",
  "3715",
  "3718",
  "3719",
  "3720",
  "3728",
  "3731",
  "3734",
  "3739",
  "3740",
  "3742",
  "3751",
  "3756",
  "3757",
  "3759",
  "3761",
  "3762",
  "3767",
  "3768",
  "3769",
  "3773",
  "3775",
  "3776",
  "3777",
  "3778",
  "3781",
  "3782",
  "3785",
  "3791",
  "3795",
  "3796",
  "3797",
  "3799",
  "3800",
  "3801",
  "3802",
  "3806",
  "3807",
  "3808",
  "3810",
  "3811",
  "3812",
  "3814",
  "3824",
  "3825",
  "3827",
  "3832",
  "3833",
  "3836",
  "3837",
  "3838",
  "3839",
  "3845",
  "3846",
  "3848",
  "3849",
  "3850",
  "3852",
  "3855",
  "3859",
  "3860",
  "3862",
  "3866",
  "3868",
  "3870",
  "3873",
  "3874",
  "3875",
  "3878",
  "3880",
  "3889",
  "3894",
  "3895",
  "3897",
  "3901",
  "3904",
  "3906",
  "3907",
  "3908",
  "3909",
  "3910",
  "3912",
  "3915",
  "3918",
  "3919",
  "3920",
  "3921",
  "3923",
  "3924",
  "3925",
  "3926",
  "3928",
  "3929",
  "3932",
  "3935",
  "3936",
  "3937",
  "3940",
  "3941",
  "3942",
  "3945",
  "3951",
  "3952",
  "3954",
  "3955",
  "3957",
  "3958",
  "3966",
  "3967",
  "3968",
  "3971",
  "3974",
  "3978",
  "3990",
  "3991",
  "3993",
  "3996",
  "3997",
  "4002",
  "4003",
  "4004",
  "4005",
  "4006",
  "4009",
  "4013",
  "4018",
  "4021",
  "4025",
  "4029",
  "4031",
  "4032",
  "4034",
  "4036",
  "4042",
  "4048",
  "4058",
  "4060",
  "4062",
  "4063",
  "4064",
  "4067",
  "4068",
  "4069",
  "4070",
  "4072",
  "4073",
  "4075",
  "4076",
  "4077",
  "4078",
  "4080",
  "4081",
  "4084",
  "4085",
  "4087",
  "4091",
  "4093",
  "4096",
  "4099",
  "4104",
  "4109",
  "4110",
  "4115",
  "4116",
  "4117",
  "4119",
  "4123",
  "4124",
  "4127",
  "4128",
  "4129",
  "4131",
  "4133",
  "4135",
  "4138",
  "4139",
  "4140",
  "4141",
  "4146",
  "4147",
  "4148",
  "4151",
  "4152",
  "4153",
  "4154",
  "4155",
  "4156",
  "4158",
  "4159",
  "4161",
  "4163",
  "4165",
  "4166",
  "4167",
  "4169",
  "4173",
  "4174",
  "4175",
  "4178",
  "4185",
  "4187",
  "4188",
  "4189",
  "4190",
  "4191",
  "4193",
  "4194",
  "4196",
  "4197",
  "4200",
  "4204",
  "4208",
  "4212",
  "4214",
  "4216",
  "4217",
  "4218",
  "4219",
  "4220",
  "4224",
  "4238",
  "4239",
  "4242",
  "4243",
  "4250",
  "4253",
  "4254",
  "4257",
  "4264",
  "4265",
  "4266",
  "4267",
  "4268",
  "4272",
  "4274",
  "4275",
  "4276",
  "4281",
  "4282",
  "4284",
  "4285",
  "4286",
  "4287",
  "4288",
  "4289",
  "4290",
  "4291",
  "4292",
  "4293",
  "4296",
  "4302",
  "4305",
  "4306",
  "4311",
  "4312",
  "4313",
  "4314",
  "4315",
  "4316",
  "4318",
  "4320",
  "4321",
  "4322",
  "4327",
  "4329",
  "4330",
  "4331",
  "4335",
  "4338",
  "4341",
  "4342",
  "4343",
  "4344",
  "4346",
  "4350",
  "4352",
  "4360",
  "4366",
  "4367",
  "4368",
  "4370",
  "4371",
  "4374",
  "4380",
  "4383",
  "4388",
  "4389",
  "4392",
  "4393",
  "4396",
  "4397",
  "4398",
  "4399",
  "4408",
  "4411",
  "4414",
  "4419",
  "4425",
  "4429",
  "4431",
  "4435",
  "4436",
  "4437",
  "4449",
  "4456",
  "4457",
  "4461",
  "4462",
  "4464",
  "4465",
  "4468",
  "4484",
  "4495",
  "4509",
  "4510",
  "4514",
  "4515",
  "4517",
  "4528",
  "4530",
  "4531",
  "4533",
  "4534",
  "4536",
  "4537",
  "4545",
  "4548",
  "4549",
  "4550",
  "4554",
  "4567",
  "4572",
  "4573",
  "4574",
  "4575",
  "4577",
  "4579",
  "4582",
  "4589",
  "4594",
  "4599",
  "4600",
  "4603",
  "4606",
  "4607",
  "4608",
  "4609",
  "4611",
  "4612",
  "4615",
  "4621",
  "4622",
  "4624",
  "4626",
  "4627",
  "4634",
  "4638",
  "4641",
  "4642",
  "4643",
  "4644",
  "4647",
  "4649",
  "4652",
  "4654",
  "4658",
  "4663",
  "4666",
  "4669",
  "4680",
  "4683",
  "4688",
  "4689",
  "4690",
  "4692",
  "4695",
  "4699",
  "4700",
  "4701",
  "4702",
  "4704",
  "4714",
  "4715",
  "4718",
  "4720",
  "4722",
  "4728",
  "4729",
  "4730",
  "4741",
  "4745",
  "4746",
  "4747",
  "4749",
  "4753",
  "4754",
  "4757",
  "4763",
  "4764",
  "4765",
  "4768",
  "4770",
  "4771",
  "4773",
  "4776",
  "4777",
  "4779",
  "4780",
  "4781",
  "4782",
  "4783",
  "4787",
  "4790",
  "4791",
  "4793",
  "4794",
  "4795",
  "4798",
  "4804",
  "4805",
  "4807",
  "4810",
  "4821",
  "4823",
  "4826",
  "4828",
  "4829",
  "4835",
  "4837",
  "4842",
  "4843",
  "4844",
  "4845",
  "4846",
  "4847",
  "4849",
  "4854",
  "4855",
  "4856",
  "4857",
  "4860",
  "4861",
  "4862",
  "4864",
  "4866",
  "4870",
  "4872",
  "4873",
  "4875",
  "4882",
  "4885",
  "4886",
  "4887",
  "4896",
  "4897",
  "4898",
  "4899",
  "4901",
  "4904",
  "4910",
  "4911",
  "4912",
  "4913",
  "4914",
  "4918",
  "4921",
  "4922",
  "4924",
  "4925",
  "4927",
  "4928",
  "4929",
  "4933",
  "4935",
  "4936",
  "4938",
  "4939",
  "4940",
  "4944",
  "4945",
  "4946",
  "4947",
  "4952",
  "4953",
  "4954",
  "4956",
  "4958",
  "4960",
  "4963",
  "4964",
  "4965",
  "4970",
  "4971",
  "4982",
  "4983",
  "4984",
  "4990",
  "4991",
  "4996",
  "5000",
  "5001",
  "5007",
  "5008",
  "5009",
  "5015",
  "5019",
  "5020",
  "5022",
  "5025",
  "5026",
  "5030",
  "5034",
  "5035",
  "5037",
  "5039",
  "5040",
  "5043",
  "5045",
  "5046",
  "5048",
  "5051",
  "5059",
  "5066",
  "5067",
  "5068",
  "5072",
  "5073",
  "5074",
  "5080",
  "5084",
  "5085",
  "5088",
  "5091",
  "5092",
  "5096",
  "5103",
  "5109",
  "5110",
  "5112",
  "5113",
  "5116",
  "5118",
  "5119",
  "5120",
  "5122",
  "5125",
  "5127",
  "5138",
  "5139",
  "5142",
  "5143",
  "5145",
  "5164",
  "5167",
  "5168",
  "5170",
  "5171",
  "5172",
  "5173",
  "5174",
  "5176",
  "5185",
  "5188",
  "5190",
  "5191",
  "5192",
  "5194",
  "5196",
  "5198",
  "5199",
  "5200",
  "5201",
  "5203",
  "5205",
  "5206",
  "5207",
  "5208",
  "5209",
  "5210",
  "5211",
  "5214",
  "5215",
  "5216",
  "5217",
  "5220",
  "5223",
  "5224",
  "5225",
  "5236",
  "5237",
  "5238",
  "5240",
  "5241",
  "5245",
  "5247",
  "5248",
  "5251",
  "5254",
  "5255",
  "5257",
  "5268",
  "5275",
  "5279",
  "5280",
  "5281",
  "5283",
  "5288",
  "5290",
  "5291",
  "5297",
  "5298",
  "5306",
  "5309",
  "5311",
  "5313",
  "5314",
  "5318",
  "5321",
  "5326",
  "5335",
  "5338",
  "5339",
  "5340",
  "5343",
  "5347",
  "5350",
  "5353",
  "5355",
  "5356",
  "5359",
  "5360",
  "5361",
  "5368",
  "5369",
  "5370",
  "5372",
  "5373",
  "5375",
  "5380",
  "5382",
  "5384",
  "5387",
  "5389",
  "5391",
  "5392",
  "5398",
  "5403",
  "5405",
  "5406",
  "5407",
  "5414",
  "5417",
  "5420",
  "5423",
  "5428",
  "5430",
  "5436",
  "5438",
  "5439",
  "5444",
  "5445",
  "5447",
  "5453",
  "5454",
  "5455",
  "5456",
  "5459",
  "5461",
  "5463",
  "5465",
  "5467",
  "5469",
  "5470",
  "5472",
  "5473",
  "5474",
  "5475",
  "5476",
  "5484",
  "5485",
  "5488",
  "5493",
  "5494",
  "5495",
  "5498",
  "5500",
  "5505",
  "5506",
  "5508",
  "5515",
  "5518",
  "5519",
  "5523",
  "5525",
  "5529",
  "5531",
  "5532",
  "5533",
  "5534",
  "5541",
  "5543",
  "5546",
  "5547",
  "5554",
  "5555",
  "5556",
  "5562",
  "5564",
  "5566",
  "5569",
  "5571",
  "5572",
  "5579",
  "5592",
  "5594",
  "5597",
  "5599",
  "5602",
  "5615",
  "5617",
  "5620",
  "5621",
  "5624",
  "5625",
  "5628",
  "5633",
  "5636",
  "5637",
  "5638",
  "5639",
  "5640",
  "5641",
  "5642",
  "5645",
  "5648",
  "5649",
  "5650",
  "5660",
  "5661",
  "5662"
]